<?xml version="1.0" encoding="utf-8"?>
<!-- Generator: Adobe Illustrator 21.1.0, SVG Export Plug-In . SVG Version: 6.00 Build 0)  -->
<svg version="1.1" id="Layer_1" xmlns="http://www.w3.org/2000/svg" xmlns:xlink="http://www.w3.org/1999/xlink" x="0px" y="0px"
	 viewBox="0 0 1835.4519043 470.0202942" style="enable-background:new 0 0 1835.4519043 470.0202942;" xml:space="preserve">
<style type="text/css">
	.st0{fill:#00C0EE;}
	.st1{fill:#111820;}
</style>
<g>
	<path class="st0" d="M1663.6506348,126.4338608c-94.7205811,0-171.7851562,77.0645828-171.7851562,171.7851562
		c0,94.7366638,77.0645752,171.8012695,171.7851562,171.8012695c94.7366943,0,171.8012695-77.0646057,171.8012695-171.8012695
		C1835.4519043,203.4984436,1758.3873291,126.4338608,1663.6506348,126.4338608z M1663.6506348,418.7985535
		c-66.477417,0-120.5666504-54.0859985-120.5666504-120.5795288c0-66.4774323,54.0892334-120.5634308,120.5666504-120.5634308
		c66.4935303,0,120.5794678,54.0859985,120.5794678,120.5634308
		C1784.2301025,364.7125549,1730.144165,418.7985535,1663.6506348,418.7985535z"/>
	<g>
		<path class="st1" d="M28.9714069,0C12.9714518,0,0,12.9714518,0,28.9714069v412.0808105
			c0,15.9999695,12.9714518,28.9680786,28.9714069,28.9680786c15.9997005,0,28.9711514-12.9681091,28.9711514-28.9680786V28.9714069
			C57.9425583,12.9714518,44.9711075,0,28.9714069,0z"/>
		<path class="st1" d="M1386.0681152,126.4337616c-15.9969482,0-28.9681396,12.9714508-28.9681396,28.971405v285.6470337
			c0,15.9999695,12.9711914,28.9680786,28.9681396,28.9680786c15.9998779,0,28.9710693-12.9681091,28.9710693-28.9680786
			V155.4051666C1415.0391846,139.4052124,1402.0679932,126.4337616,1386.0681152,126.4337616z"/>
		<path class="st1" d="M292.2424622,126.5657959c-88.3478241,3.44104-161.4398499,76.5458984-164.8451843,164.8967896
			c-3.7698288,97.8040161,74.6900101,178.5577087,171.6691895,178.5577087
			c53.2641907,0,102.8944092-24.8021545,135.3484802-66.5194702c0,0,6.3025513-8.4184265,6.8016663-9.4240723
			c0.4988403-1.0054016,0.4988403-1.0054016,0.7218018-1.5155334c4.7410583-10.8499756,1.5196533-23.8648376-8.4995728-31.0222778
			c-10.8707886-7.764679-25.6560059-5.7220459-34.2069702,4.2077942
			c-22.4725647,33.2984009-60.0334778,53.0517578-100.1654053,53.0517578
			c-57.704422,0-106.074707-40.7504578-117.8442535-94.9686584h264.0344849
			c14.1443176,0,25.6110229-11.4700317,25.6110229-25.6107788
			C470.8677063,201.2334595,390.0752258,122.7576904,292.2424622,126.5657959z M181.2222137,272.6080322
			c11.7695465-54.2212677,60.1398315-94.9558105,117.8442535-94.9558105
			c57.7072754,0,106.0775452,40.7345428,117.8473511,94.9558105H181.2222137z"/>
		<path class="st1" d="M1231.3299561,0c-14.1442871,0-25.6109619,11.4667034-25.6109619,25.6110268v150.4270172
			c-31.0397949-30.633606-73.6203613-49.6042786-120.5794678-49.6042786
			c-94.7400513,0-171.8012085,77.0645294-171.8012085,171.7852936c0,94.7366943,77.0611572,171.801239,171.8012085,171.801239
			c46.9591064,0,89.5396729-18.9706726,120.5794678-49.6076355v23.999939c0,14.1440735,11.4666748,25.6076965,25.6109619,25.6076965
			c14.144165,0,25.6108398-11.463623,25.6108398-25.6076965V25.6110268C1256.9407959,11.4667034,1245.4741211,0,1231.3299561,0z
			 M1085.1395264,418.7984924c-66.4935303,0-120.5827637-54.085907-120.5827637-120.5794373
			c0-66.4775848,54.0892334-120.5634918,120.5827637-120.5634918c66.4902344,0,120.5794678,54.085907,120.5794678,120.5634918
			C1205.7189941,364.7125854,1151.6297607,418.7984924,1085.1395264,418.7984924z"/>
		<path class="st1" d="M692.6308594,126.4337616c-42.0620117,0.0259476-76.7786255,13.627243-105.3826904,42.1891937v-16.649826
			c0-14.1440735-11.4666748-25.6110306-25.6107788-25.6110306c-14.144043,0-25.607666,11.4669571-25.607666,25.6110306v292.4394531
			c0,14.1440735,11.463623,25.6076965,25.607666,25.6076965c14.144104,0,25.6107788-11.463623,25.6107788-25.6076965V283.0349121
			c0-68.2050323,55.6113892-106.2247162,105.3826904-106.2247162c63.0709839,0,106.3670654,50.9084167,106.3670654,109.3716583
			V444.428772c0,14.1343079,11.4569092,25.5915222,25.5914917,25.5915222h0.0385132
			c14.1312256,0,25.5914917-11.4572144,25.5914917-25.5915222V286.1818542
			C850.2194214,233.5780945,808.6531372,126.3620987,692.6308594,126.4337616z"/>
		<circle class="st1" cx="1386.0695801" cy="33.1324539" r="33.1324539"/>
	</g>
</g>
</svg>
